{
  "targets": [
    "BLOCK_USE"
  ],
  "items": [
    "minecraft:bucket"
  ],
  "block_allow_list": [
    "minecraft:lava_cauldron",
    "minecraft:water_cauldron",
    "minecraft:powder_snow_cauldron"
  ]
}